{
    "id": "2multifit", 
    "name": "$2 Multifit SIM Starter Kit", 
    "color": "Blue",
    "price": 2,
    "age": 0,
    "specs": {
        "brand": "Telstra", 
        "model": "n/a",
        "color": "Blue",
        "weight": "n/a",
        "dimensions": "8.8cm x 6cm x 13.8cm",
        "warranty": "1 year",
        "catno": "n/a"
    },
    "description": [
        "Your Telstra Pre-Paid SIM card with a new service number",
        "Works as a Standard SIM (2FF) or a MicroSIM (3FF)",
        "Just recharge on your favourite Pre-Paid offer",
        "Ready for International Roaming"
        ],
    "images": [
        "img/phones/multifit-sim-2.png", 
        "img/phones/multifit-sim-2.png",  
        "img/phones/multifit-sim-2.png"
    ]
}
