{
    "id": "3GWifi", 
    "name": "Telstra Pre-Paid 3G WiFi", 
    "color": "White",
    "price": 59,
    "age": 1,
    "specs": {
        "brand": "Telstra", 
        "model": "n/a",
        "color": "White",
        "weight": "n/a",
        "dimensions": "8.8cm x 6cm x 13.8cm",
        "warranty": "1 year",
        "catno": "n/a"
    },
    "description": [
        "Connect up to 5 WI-FI enabled devices simultaneously including a compatible Smartphone, tablet or laptop",
        "Powered by the Telstra Mobile Network",
        "Compact and lightweight design",
        "Compatible with PC and Mac",
        "Includes 2GB of data to use in Australia (30 day expiry)",
        "Battery life up to 4 hours. Standby time up to 100 hours"
        ],
    "images": [
        "img/phones/telstra-prepaid-usb-3g.png", 
        "img/phones/telstra-prepaid-usb-3g.png",  
        "img/phones/telstra-prepaid-usb-3g.png"
    ]
}
